{
    "Image_Build_IDs": {
        "adsp": "ADSP.VT.5.4.3-00071-DIVAR-1", 
        "apps": "LA.UM.9.15.r1-04100-KAMORTA.0-1", 
        "boot": "BOOT.XF.4.1-00312-KAMORTALAZ-1", 
        "btfm": "BTFM.CHE.2.1.6-00026-QCACHROMZ-1", 
        "btfm_cmc_120": "BTFM.CMC.1.2.0-00209-QCACHROMZ-1", 
        "btfm_cmc_130": "BTFM.CMC.1.3.0-00033-QCACHROMZ-1", 
        "cdsp": "CDSP.VT.2.4.1-00248-KAMORTA-1", 
        "common": "Divar.LA.1.0-00030-STD.PROD-2", 
        "glue": "GLUE.DIVAR_LA.1.0-00079-NOOP_TEST-1", 
        "modem": "MPSS.HA.1.1.c4-00006-KD_ALL_PACK-1.6061.25", 
        "rpm": "RPM.BF.1.10-00203-KAMORTAAAAAANAZR-1", 
        "tz": "TZ.XF.5.1-01059-KAMORTAAAAAANAZT-1", 
        "tz_apps": "TZ.APPS.2.0-00199-KAMORTAAAAAANAZT-1", 
        "video": "VIDEO.VE.6.0-00049-PROD-1", 
        "wlan": "WLAN.HL.3.2.4-00949-QCAHLSWMTPLZ-1"
    }, 
    "Metabuild_Info": {
        "Meta_Build_ID": "Divar.LA.1.0-00030-STD.PROD-2", 
        "Product_Flavor": "asic", 
        "Time_Stamp": "2022-09-10 01:23:24"
    }, 
    "Version": "1.0"
}